%YAML 1.1
%TAG !u! tag:unity3d.com,2011:
--- !u!1045 &1
EditorBuildSettings:
  m_ObjectHideFlags: 0
  serializedVersion: 2
  m_Scenes:
  - enabled: 1
    path: Packages/com.unity.testing.visualeffectgraph/Scenes/000_MultiOutput.unity
    guid: 0ecaa798eef075e44a2d6079bb6332cb
  - enabled: 1
    path: Packages/com.unity.testing.visualeffectgraph/Scenes/001_Animator.unity
    guid: 5b49c2231e77a894db022592c9c27347
  - enabled: 1
    path: Packages/com.unity.testing.visualeffectgraph/Scenes/002_Gradient.unity
    guid: 8290025b324fadc42a105d81f39d5560
  - enabled: 1
    path: Packages/com.unity.testing.visualeffectgraph/Scenes/003_EventAttribute.unity
    guid: 83e25bb667f35a04aafd184b5c2da7b3
  - enabled: 1
    path: Packages/com.unity.testing.visualeffectgraph/Scenes/004_Bounds.unity
    guid: fc042ee6987609a4b895d96dffef8dff
  - enabled: 1
    path: Assets/AllTests/VFXTests/GraphicsTests/05_MotionVectors.unity
    guid: 24824e132e4c94b43818ee0460ae321c
  - enabled: 1
    path: Assets/AllTests/VFXTests/GraphicsTests/06_LineOutput.unity
    guid: ad1aa14fb546a3744b989a07c0415a94
  - enabled: 1
    path: Assets/AllTests/VFXTests/GraphicsTests/07_UnityLogo.unity
    guid: e9cdfe0298ff8db4989c389251f87663
  - enabled: 1
    path: Assets/AllTests/VFXTests/GraphicsTests/08_Shadows.unity
    guid: 9841d2a225946a540a9a45cebafc019b
  - enabled: 1
    path: Assets/AllTests/VFXTests/GraphicsTests/09_AttributeMaps.unity
    guid: 82e42e996bcf5c44ca4897841e3c4f52
  - enabled: 1
    path: Assets/AllTests/VFXTests/GraphicsTests/10_SortPriority.unity
    guid: 5851a3c3acfab9c4ca6ee81e76ae49b3
  - enabled: 1
    path: Assets/AllTests/VFXTests/GraphicsTests/11_Space.unity
    guid: 8f02c61a617e0b142bad3216ae358921
  - enabled: 1
    path: Assets/AllTests/VFXTests/GraphicsTests/11_SpaceBis.unity
    guid: efe91acbbd0143e448b4fb64ede27d45
  - enabled: 1
    path: Assets/AllTests/VFXTests/GraphicsTests/12_LocalTransformations.unity
    guid: 0dc03e6162787ab44850cd91de701789
  - enabled: 1
    path: Assets/AllTests/VFXTests/GraphicsTests/13_Decals.unity
    guid: 94a6fc38ce3a3844c97c3cb7f0e46508
  - enabled: 1
    path: Assets/AllTests/VFXTests/GraphicsTests/14_DecalsFlipBook.unity
    guid: 09e42fbbdc517b240bfa5ca6243ee42a
  - enabled: 1
    path: Assets/AllTests/VFXTests/GraphicsTests/15_CubeAndMesh.unity
    guid: 2123961e2be41644dae0d405fae040af
  - enabled: 1
    path: Assets/AllTests/VFXTests/GraphicsTests/16_CullingMode.unity
    guid: ea8e42e55d3d6af4aa67616140b7d0db
  - enabled: 1
    path: Assets/AllTests/VFXTests/GraphicsTests/16_MeshParticles.unity
    guid: a232e64f140510d41bb722d0cdd309f9
  - enabled: 1
    path: Assets/AllTests/VFXTests/GraphicsTests/17_GPUEvent_Simple.unity
    guid: 4381d526452174f4fa8430fbc51c28e4
  - enabled: 1
    path: Assets/AllTests/VFXTests/GraphicsTests/17_SoftParticles.unity
    guid: 7cee47a7259f65d40ac60c5954c583cd
  - enabled: 1
    path: Assets/AllTests/VFXTests/GraphicsTests/19_Random.unity
    guid: 8eafa797342cff340a77c1ab544633a8
  - enabled: 1
    path: Assets/AllTests/VFXTests/GraphicsTests/20_SpawnerChaining.unity
    guid: e0c50bd7286de7b4b9c97f3f962b0933
  - enabled: 1
    path: Assets/AllTests/VFXTests/GraphicsTests/21_DepthModules.unity
    guid: 810f6e5fbd289164eb3fe0ba8eb32588
  - enabled: 1
    path: Assets/AllTests/VFXTests/GraphicsTests/22_Prewarm.unity
    guid: fce7db23c3ae2184aaff7992d0bcdbee
  - enabled: 1
    path: Assets/AllTests/VFXTests/GraphicsTests/23_ParameterBinders.unity
    guid: e0138a5b43c27d648a6245b159cdb358
  - enabled: 1
    path: Assets/AllTests/VFXTests/GraphicsTests/23_InvertTRSMatrix.unity
    guid: 097d99c9737f88f4882c658cbe58367b
  - enabled: 1
    path: Assets/AllTests/VFXTests/GraphicsTests/HDRP.unity
    guid: 27665c3c3e33fc2469ff1206248887a0
  - enabled: 1
    path: Assets/AllTests/VFXTests/GraphicsTests/Collision.unity
    guid: e51caecb20798cf40ba0f8b8759d3e1b
  - enabled: 1
    path: Assets/AllTests/VFXTests/GraphicsTests/ConformAndSDF.unity
    guid: 637544c4a1360da42a28676609233cd8
  - enabled: 1
    path: Assets/AllTests/VFXTests/GraphicsTests/RenderStates.unity
    guid: 9c3bfb9910ba6154a82704376c436e16
  - enabled: 1
    path: Assets/AllTests/VFXTests/GraphicsTests/ParticleCountLimit.unity
    guid: 83f800ebc86ceb049a76082150c4ebec
  - enabled: 1
    path: Assets/AllTests/VFXTests/GraphicsTests/HDRPFog.unity
    guid: 0379b72b85eee8045afdaec3b1362957
  - enabled: 0
    path: Assets/AllTests/VFXTests/GraphicsTests/HDRPFogVolumetric.unity
    guid: 2744a8931e888734bae7f74874fefdf5
  - enabled: 1
    path: Assets/AllTests/VFXTests/GraphicsTests/Timeline.unity
    guid: 9949ad9004662574ca9d59c2e372bdef
  - enabled: 1
    path: Assets/AllTests/VFXTests/GraphicsTests/SimpleLit.unity
    guid: 61f447f894ffdd741aa7a64ced0311cf
  - enabled: 1
    path: Assets/AllTests/VFXTests/GraphicsTests/AngularVelocity.unity
    guid: da2063a2a525cb849a6fbdb716cc5b43
  - enabled: 1
    path: Assets/AllTests/VFXTests/GraphicsTests/Noise.unity
    guid: 2ede8f56c35c42741a3d56ef5355b552
  m_configObjects: {}
